Chengdu
…
sixty_population <- demographics_Complete %>%
  summarise(sixty_population = sum(`60_Popularity`))

cbind(Bed_Chengdu, population, sixty_population) %>%
  mutate(total_aging_percentage = sixty_population/population) %>%
  mutate(Bed_per_60 = bed/sixty_population)

##      bed population sixty_population total_aging_percentage Bed_per_60
## 1 106130   17276000          3160429              0.1829375 0.03358088

demographics_Complete %>%
  mutate(Bed_per_60 = bed/`60_Popularity`)

## # A tibble: 22 x 6
##    District `60_Popularity` Popularity aging_percentage   bed Bed_per_60
##    <chr>              <dbl>      <dbl>            <dbl> <dbl>      <dbl>
##  1           109994    2050000           0.0537  1468     0.0133
##  2             161443    1100000           0.147   1875     0.0116
##  3             131348     537000           0.245   3540     0.0270
##  4             149334     841000           0.178   6538     0.0438
##  5             196029    1211000           0.162   4359     0.0222
##  6             144899    1083000           0.134   5528     0.0382
##  7             177988     945000           0.188   6706     0.0377
##  8           138593     859000           0.161   6498     0.0469
##  9            94006     398000           0.236   1825     0.0194
## 10             164470     848000           0.194  10225     0.0622
## # ... with 12 more rows
…
